<svg width="13" height="13" viewBox="0 0 13 13" fill="none" xmlns="http://www.w3.org/2000/svg">
<g id="close">
<rect id="left" width="16" height="2" rx="1" transform="translate(1.41422) rotate(45)" fill="#555555"/>
<rect id="right" width="16" height="2" rx="1" transform="translate(11.3137) scale(-1 1) rotate(45)" fill="#555555"/>
</g>
</svg>
