<svg width="18" height="18" viewBox="0 0 18 18" version="1.1" xmlns="http://www.w3.org/2000/svg" xmlns:xlink="http://www.w3.org/1999/xlink">
<title>Save</title>
<desc>Created using Figma</desc>
<g id="Canvas" transform="translate(-2 -1)">
<g id="Save">
<g id="Rectangle">
<mask id="mask0_outline_ins">
<use xlink:href="#path0_fill" fill="white" transform="translate(2 1)"/>
</mask>
<g mask="url(#mask0_outline_ins)">
<use xlink:href="#path1_stroke_2x" transform="translate(2 1)" fill="#FFFFFF"/>
</g>
</g>
<g id="Rectangle 2">
<use xlink:href="#path2_fill" transform="translate(6 1)" fill="#FFFFFF"/>
<mask id="mask1_outline_ins">
<use xlink:href="#path2_fill" fill="white" transform="translate(6 1)"/>
</mask>
<g mask="url(#mask1_outline_ins)">
<use xlink:href="#path3_stroke_2x" transform="translate(6 1)" fill="#FFFFFF"/>
</g>
</g>
<g id="Rectangle 4">
<mask id="mask2_outline_ins">
<use xlink:href="#path4_fill" fill="white" transform="translate(8 1)"/>
</mask>
<g mask="url(#mask2_outline_ins)">
<use xlink:href="#path5_stroke_2x" transform="translate(8 1)" fill="#FFFFFF"/>
</g>
</g>
<g id="Rectangle 3">
<mask id="mask3_outline_ins">
<use xlink:href="#path6_fill" fill="white" transform="translate(6 11)"/>
</mask>
<g mask="url(#mask3_outline_ins)">
<use xlink:href="#path7_stroke_2x" transform="translate(6 11)" fill="#FFFFFF"/>
</g>
</g>
</g>
</g>
<defs>
<path id="path0_fill" d="M 2 18L 16 18C 17.1046 18 18 17.1046 18 16L 18 4.82843C 18 4.29799 17.7893 3.78929 17.4142 3.41421L 14.5858 0.585786C 14.2107 0.210714 13.702 0 13.1716 0L 2 0C 0.895431 0 0 0.895431 0 2L 0 16C 0 17.1046 0.895431 18 2 18Z"/>
<path id="path1_stroke_2x" d="M 14.5858 0.585786L 16 -0.828427L 16 -0.828428L 14.5858 0.585786ZM 17.4142 3.41421L 18.8284 2L 18.8284 2L 17.4142 3.41421ZM 16 16L 2 16L 2 20L 16 20L 16 16ZM 2 16L 2 2L -2 2L -2 16L 2 16ZM 2 2L 13.1716 2L 13.1716 -2L 2 -2L 2 2ZM 16 4.82843L 16 16L 20 16L 20 4.82843L 16 4.82843ZM 13.1716 2L 16 4.82843L 18.8284 2L 16 -0.828427L 13.1716 2ZM 20 4.82843C 20 3.76756 19.5786 2.75014 18.8284 2L 16 4.82843L 16 4.82843L 20 4.82843ZM 13.1716 2L 13.1716 2L 16 -0.828428C 15.2499 -1.57857 14.2324 -2 13.1716 -2L 13.1716 2ZM 2 16L -2 16C -2 18.2091 -0.209138 20 2 20L 2 16ZM 16 20C 18.2091 20 20 18.2091 20 16L 16 16L 16 20ZM 2 2L 2 -2C -0.209139 -2 -2 -0.209139 -2 2L 2 2Z"/>
<path id="path2_fill" d="M 0 0L 4 0L 4 7L 2 7C 0.895431 7 0 6.10457 0 5L 0 0Z"/>
<path id="path3_stroke_2x" d="M 0 0L 0 -2L -2 -2L -2 0L 0 0ZM 4 0L 6 0L 6 -2L 4 -2L 4 0ZM 4 7L 4 9L 6 9L 6 7L 4 7ZM 0 2L 4 2L 4 -2L 0 -2L 0 2ZM 2 0L 2 7L 6 7L 6 0L 2 0ZM 4 5L 2 5L 2 9L 4 9L 4 5ZM 2 5L 2 0L -2 0L -2 5L 2 5ZM 2 5L -2 5C -2 7.20914 -0.209139 9 2 9L 2 5Z"/>
<path id="path4_fill" d="M 0 2C 0 0.895431 0.895431 0 2 0L 4 0C 5.10457 0 6 0.895431 6 2L 6 5C 6 6.10457 5.10457 7 4 7L 2 7C 0.895431 7 0 6.10457 0 5L 0 2Z"/>
<path id="path5_stroke_2x" d="M 2 2L 4 2L 4 -2L 2 -2L 2 2ZM 4 2L 4 5L 8 5L 8 2L 4 2ZM 4 5L 2 5L 2 9L 4 9L 4 5ZM 2 5L 2 2L -2 2L -2 5L 2 5ZM 2 5L 2 5L -2 5C -2 7.20914 -0.209139 9 2 9L 2 5ZM 4 5L 4 9C 6.20914 9 8 7.20914 8 5L 4 5ZM 4 2L 4 2L 8 2C 8 -0.209139 6.20914 -2 4 -2L 4 2ZM 2 -2C -0.209139 -2 -2 -0.209139 -2 2L 2 2L 2 2L 2 -2Z"/>
<path id="path6_fill" d="M 0 2C 0 0.895431 0.895431 0 2 0L 8 0C 9.10457 0 10 0.895431 10 2L 10 6C 10 7.10457 9.10457 8 8 8L 2 8C 0.895431 8 0 7.10457 0 6L 0 2Z"/>
<path id="path7_stroke_2x" d="M 2 2L 8 2L 8 -2L 2 -2L 2 2ZM 8 2L 8 6L 12 6L 12 2L 8 2ZM 8 6L 2 6L 2 10L 8 10L 8 6ZM 2 6L 2 2L -2 2L -2 6L 2 6ZM 2 6L 2 6L -2 6C -2 8.20914 -0.209139 10 2 10L 2 6ZM 8 6L 8 6L 8 10C 10.2091 10 12 8.20914 12 6L 8 6ZM 8 2L 8 2L 12 2C 12 -0.209139 10.2091 -2 8 -2L 8 2ZM 2 -2C -0.209139 -2 -2 -0.209139 -2 2L 2 2L 2 2L 2 -2Z"/>
</defs>
</svg>
