<svg width="20" height="20" viewBox="0 0 20 20" version="1.1" xmlns="http://www.w3.org/2000/svg" xmlns:xlink="http://www.w3.org/1999/xlink">
<title>Configurations</title>
<desc>Created using Figma</desc>
<g id="Canvas" transform="translate(-1 0)">
<g id="Configurations">
<g id="Subtract">
<use xlink:href="#path0_fill" transform="translate(1 0)" fill="#808080"/>
</g>
<g id="Ellipse">
<mask id="mask0_outline_ins">
<use xlink:href="#path1_fill" fill="white" transform="translate(7.66667 6.66667)"/>
</mask>
<g mask="url(#mask0_outline_ins)">
<use xlink:href="#path2_stroke_2x" transform="translate(7.66667 6.66667)" fill="#808080"/>
</g>
</g>
</g>
</g>
<defs>
<path id="path0_fill" fill-rule="evenodd" d="M 7.5 1.66667C 7.5 0.746192 8.24619 0 9.16667 0L 10.8333 0C 11.7538 0 12.5 0.746192 12.5 1.66667L 12.5 2.92676C 12.7509 3.01544 12.9957 3.1171 13.2335 3.23091L 14.1247 2.33968C 14.7756 1.6888 15.8309 1.6888 16.4818 2.33968L 17.6603 3.51819C 18.3112 4.16906 18.3112 5.22434 17.6603 5.87521L 16.7691 6.76643C 16.8829 7.00429 16.9845 7.24908 17.0732 7.5L 18.3333 7.5C 19.2538 7.5 20 8.24619 20 9.16667L 20 10.8333C 20 11.7538 19.2538 12.5 18.3333 12.5L 17.0732 12.5C 16.9846 12.7509 16.8829 12.9957 16.7691 13.2336L 17.6603 14.1248C 18.3112 14.7757 18.3112 15.8309 17.6603 16.4818L 16.4818 17.6603C 15.8309 18.3112 14.7756 18.3112 14.1248 17.6603L 13.2335 16.7691C 12.9957 16.8829 12.7509 16.9846 12.5 17.0732L 12.5 18.3333C 12.5 19.2538 11.7538 20 10.8333 20L 9.16667 20C 8.24619 20 7.5 19.2538 7.5 18.3333L 7.5 17.0732C 7.24908 16.9845 7.00429 16.8829 6.76643 16.7691L 5.87517 17.6603C 5.22429 18.3112 4.16902 18.3112 3.51814 17.6603L 2.33963 16.4818C 1.68876 15.8309 1.68876 14.7757 2.33963 14.1248L 3.23091 13.2335C 3.1171 12.9957 3.01544 12.7509 2.92676 12.5L 1.66667 12.5C 0.746192 12.5 0 11.7538 0 10.8333L 0 9.16667C 0 8.24619 0.746192 7.5 1.66667 7.5L 2.92676 7.5C 3.01545 7.2491 3.1171 7.00432 3.23092 6.76648L 2.33965 5.87521C 1.68877 5.22434 1.68877 4.16906 2.33965 3.51819L 3.51816 2.33968C 4.16903 1.6888 5.22431 1.6888 5.87518 2.33968L 6.76644 3.23094C 7.0043 3.11711 7.24908 3.01545 7.5 2.92676L 7.5 1.66667ZM 9.16667 2.5C 9.16667 2.03976 9.53976 1.66667 10 1.66667C 10.4602 1.66667 10.8333 2.03976 10.8333 2.5L 10.8333 4.22574C 11.8216 4.3671 12.73 4.75617 13.4935 5.32804L 14.7141 4.10744C 15.0395 3.78201 15.5672 3.78201 15.8926 4.10744C 16.2181 4.43288 16.2181 4.96052 15.8926 5.28596L 14.672 6.50656C 15.2439 7.27009 15.6329 8.17843 15.7743 9.16667L 17.5 9.16667C 17.9602 9.16667 18.3333 9.53976 18.3333 10C 18.3333 10.4602 17.9602 10.8333 17.5 10.8333L 15.7743 10.8333C 15.6329 11.8216 15.2438 12.7299 14.672 13.4935L 15.8926 14.714C 16.218 15.0395 16.218 15.5671 15.8926 15.8926C 15.5671 16.218 15.0395 16.218 14.7141 15.8926L 13.4935 14.672C 12.7299 15.2438 11.8216 15.6329 10.8333 15.7743L 10.8333 17.5C 10.8333 17.9602 10.4602 18.3333 10 18.3333C 9.53976 18.3333 9.16667 17.9602 9.16667 17.5L 9.16667 15.7743C 8.17843 15.6329 7.27009 15.2439 6.50656 14.672L 5.28601 15.8926C 4.96058 16.218 4.43294 16.218 4.1075 15.8926C 3.78207 15.5671 3.78206 15.0395 4.1075 14.714L 5.32804 13.4935C 4.75617 12.73 4.3671 11.8216 4.22574 10.8333L 2.5 10.8333C 2.03976 10.8333 1.66667 10.4602 1.66667 10C 1.66667 9.53976 2.03976 9.16667 2.5 9.16667L 4.22574 9.16667C 4.3671 8.17841 4.75616 7.27005 5.32802 6.50651L 4.10746 5.28595C 3.78203 4.96052 3.78203 4.43288 4.10746 4.10744C 4.4329 3.78201 4.96054 3.78201 5.28597 4.10744L 6.50654 5.328C 7.27007 4.75616 8.17842 4.3671 9.16667 4.22574L 9.16667 2.5Z"/>
<path id="path1_fill" d="M 6.66667 3.33333C 6.66667 5.17428 5.17428 6.66667 3.33333 6.66667C 1.49238 6.66667 0 5.17428 0 3.33333C 0 1.49238 1.49238 0 3.33333 0C 5.17428 0 6.66667 1.49238 6.66667 3.33333Z"/>
<path id="path2_stroke_2x" d="M 4.66667 3.33333C 4.66667 4.06971 4.06971 4.66667 3.33333 4.66667L 3.33333 8.66667C 6.27885 8.66667 8.66667 6.27885 8.66667 3.33333L 4.66667 3.33333ZM 3.33333 4.66667C 2.59695 4.66667 2 4.06971 2 3.33333L -2 3.33333C -2 6.27885 0.387815 8.66667 3.33333 8.66667L 3.33333 4.66667ZM 2 3.33333C 2 2.59695 2.59695 2 3.33333 2L 3.33333 -2C 0.387815 -2 -2 0.387815 -2 3.33333L 2 3.33333ZM 3.33333 2C 4.06971 2 4.66667 2.59695 4.66667 3.33333L 8.66667 3.33333C 8.66667 0.387815 6.27885 -2 3.33333 -2L 3.33333 2Z"/>
</defs>
</svg>
